데이터 과학을 위한 저작도구: Computational Documents
…
대쉬보드 제작 흐름

2.1 데이터셋

# install.packages("coronavirus") 
# devtools::install_github("RamiKrispin/coronavirus")

library(coronavirus)

data("coronavirus")
coronavirus

# A tibble: 2,161 x 7
   Province.State Country.Region   Lat  Long date       cases type     
   <chr>          <chr>          <dbl> <dbl> <date>     <int> <chr>    
 1 ""             Japan           35.7  140. 2020-01-22     2 confirmed
 2 ""             South Korea     37.6  127. 2020-01-22     1 confirmed
 3 ""             Thailand        13.8  101. 2020-01-22     2 confirmed
 4 "Anhui"        Mainland China  31.8  117. 2020-01-22     1 confirmed
 5 "Beijing"      Mainland China  40.2  116. 2020-01-22    14 confirmed
 6 "Chongqing"    Mainland China  30.1  108. 2020-01-22     6 confirmed
 7 "Fujian"       Mainland China  26.1  118. 2020-01-22     1 confirmed
 8 "Guangdong"    Mainland China  23.3  113. 2020-01-22    26 confirmed
 9 "Guangxi"      Mainland China  23.8  109. 2020-01-22     2 confirmed
10 "Guizhou"      Mainland China  26.8  107. 2020-01-22     1 confirmed
# … with 2,151 more rows
…
